No.,"Employer Name","Job Name","Number of Days","Number of Persons","Total Hours","Salary Per Hour",Commision,"Total Amount","MadWall Commission"
EMPR17731231,"check madwall",fdsgfdgdfgdfhgh,1,1,7,$43,30%,$301,$391.3
EMPR17731231,"check madwall","test rehire",1,1,6,$25,50%,$150,$225
EMPR17731231,"check madwall","REHIRE AGAIN",1,1,5,$10,50%,$50,$75
EMPR17731231,"check madwall","accept rehire job",1,1,7.5,$23,50%,$172.5,$258.75
EMPR17731231,"check madwall","44 three same",1,1,12,$25,50%,$300,$450
EMPR17731231,"check madwall","44 four again",10,1,120,$23,50%,$2760,$4140
EMPR17731231,"check madwall","44 five same",1,1,12,$22,50%,$264,$396
EMPR17996384,"sdgvffd fdhghfgh","44 six different",1,1,12,$22,35%,$264,$356.4
EMPR17731231,"check madwall","job 44 one",6,0,72,$111,50%,$7992,$11988
EMPR17731231,"check madwall","job 44 two same",1,1,12,$111,30%,$1332,$1731.6
EMPR17731231,"check madwall","overnight issue 2",1,1,6.5,$434,50%,$2821,$4231.5
EMPR17731231,"check madwall",tyrjuyfkuygkjg,1,1,6.5,$234,30%,$1521,$1977.3
EMPR17731231,"check madwall","test rehire automatic scenario",1,2,20,$123,50%,$2460,$3690
EMPR17731231,"check madwall","pull refresh rehire",1,1,6,$23,33%,$138,$183.54
EMPR17731231,"check madwall","rehire auto notification",1,1,6.5,$22,55%,$143,$221.65
EMPR17731231,"check madwall","rehire job notification",1,1,8,$43,55%,$344,$533.2
EMPR17731231,"check madwall","44 one",5,1,60,$111,50%,$6660,$9990
