No.,"Employer Name","Job Name","Number of Days","Number of Persons","Total Hours","Salary Per Hour",Commision,"Total Amount","MadWall Commission"
EMPR17482914,"Adrienne Nahas","Warehouse Associate",9,1,7.5,$14,30%,$105,$136.5
EMPR17482914,"Adrienne Nahas","Warehouse Associate",8,2,37.47,$14,30%,$524.58,$681.954
